sex,age,Pstatus,famrel,Dalc,Walc,health
F,18,A,4,1,1,3
F,17,T,5,1,1,3
F,15,T,4,2,3,3
F,15,T,3,1,1,5
F,16,T,4,1,2,5
M,16,T,5,1,2,5
M,16,T,4,1,1,3
F,17,A,4,1,1,1
M,15,A,4,1,1,1
M,15,T,5,1,1,5
F,15,T,3,1,2,2
F,15,T,5,1,1,4
M,15,T,4,1,3,5
M,15,T,5,1,2,3
M,15,A,4,1,1,3
F,16,T,4,1,2,2
F,16,T,3,1,2,2
F,16,T,5,1,1,4
M,17,T,5,2,4,5
M,16,T,3,1,3,5
M,15,T,4,1,1,1
M,15,T,5,1,1,5
M,16,T,4,1,3,5
M,16,T,5,2,4,5
F,15,T,4,1,1,5
F,16,T,1,1,3,5
M,15,T,4,1,2,5
M,15,T,2,2,4,1
M,16,A,5,1,1,5
M,16,T,4,5,5,5
M,15,T,5,3,4,5
M,15,T,4,1,1,5
M,15,T,4,1,1,5
M,15,T,5,1,1,2
M,16,T,5,1,1,5
F,15,T,3,1,1,5
M,15,T,5,1,1,4
M,16,A,2,1,1,5
F,15,T,4,1,1,5
F,15,T,4,1,1,2
F,16,T,3,1,2,3
M,15,T,5,2,4,5
M,15,T,4,1,1,5
M,15,T,5,1,1,1
F,16,T,4,2,2,5
F,15,A,5,1,1,5
F,16,A,2,1,4,3
M,16,T,4,1,1,2
M,15,T,4,2,2,5
F,15,T,4,1,1,3
F,16,T,4,2,3,4
F,15,T,4,1,1,5
M,15,A,5,3,4,5
F,15,T,3,2,3,5
F,15,A,5,4,4,1
F,16,A,5,1,1,2
F,15,A,4,1,1,1
M,15,T,3,1,1,5
M,15,T,4,1,1,5
F,16,T,4,1,1,5
F,16,T,2,2,3,4
F,16,T,5,5,5,5
F,16,T,4,1,1,1
F,16,T,3,2,4,4
F,15,T,4,2,4,2
F,16,T,5,1,2,1
M,15,A,1,5,5,3
F,16,T,4,1,2,5
F,15,T,4,1,3,4
F,15,T,4,2,3,3
M,16,T,4,1,1,5
M,15,T,3,1,1,3
F,15,T,3,2,4,5
M,16,T,5,2,2,5
F,16,T,4,2,4,5
M,15,T,4,2,3,5
M,15,T,3,1,1,1
F,16,T,5,1,3,3
M,17,T,4,1,1,3
F,16,T,2,1,2,3
M,15,T,3,1,3,3
M,15,T,5,1,2,5
F,15,T,4,1,1,5
M,15,T,5,1,3,4
F,15,T,4,2,3,4
F,15,T,4,2,3,5
F,16,T,4,1,2,2
F,15,T,5,1,3,1
M,16,T,4,1,1,3
M,16,A,4,3,5,5
F,16,T,4,1,3,4
F,15,T,4,1,3,1
F,16,T,3,2,3,2
F,16,T,5,1,1,1
M,15,T,4,1,1,4
F,15,T,3,1,1,1
M,16,T,3,1,1,4
F,16,T,4,1,1,5
F,16,T,5,1,2,1
F,16,T,5,1,1,3
M,16,T,4,5,5,4
M,16,T,4,1,1,4
M,15,T,5,1,1,5
F,15,T,4,1,1,2
M,15,A,5,1,1,1
F,15,A,4,1,1,4
F,15,T,5,1,1,3
M,16,T,5,1,1,5
M,15,T,1,3,5,1
F,16,T,5,1,1,4
M,15,A,5,1,1,4
F,16,T,4,1,1,2
F,16,T,3,1,1,5
M,15,T,3,1,1,3
M,15,T,5,1,1,5
M,16,T,5,1,2,5
M,15,T,4,1,1,2
M,16,T,5,1,1,5
M,17,T,5,1,4,5
M,15,T,3,1,2,4
F,15,T,3,1,2,1
M,15,T,5,1,2,5
F,16,T,4,1,2,5
M,16,T,3,1,4,5
F,16,T,5,1,1,5
M,15,T,5,3,2,5
F,15,A,5,1,1,1
F,19,T,3,1,1,5
M,18,T,3,1,2,4
M,16,T,3,2,5,4
F,15,T,4,2,2,5
F,15,T,4,1,2,4
F,17,T,3,1,3,5
F,16,A,3,1,4,5
M,15,T,5,1,1,5
F,15,T,4,1,1,5
M,17,T,5,2,4,5
F,16,A,4,1,1,5
M,16,T,4,1,3,5
F,15,T,4,1,1,5
M,15,T,2,1,1,3
M,16,T,2,2,2,2
F,15,T,4,1,1,5
F,16,T,3,3,3,1
M,17,T,5,1,2,5
F,15,T,4,1,2,5
F,15,T,3,1,1,3
F,15,T,4,1,1,5
M,16,T,3,2,1,5
M,15,A,4,2,5,5
M,18,T,2,2,5,4
M,16,T,4,3,5,5
F,15,T,4,2,3,3
M,19,T,4,1,1,4
F,17,T,4,1,1,4
M,15,T,4,1,1,1
M,17,T,2,3,3,5
F,18,T,5,1,5,4
M,16,T,4,1,2,3
M,16,T,4,4,4,5
M,17,T,3,2,2,5
M,15,T,4,1,4,3
M,16,T,4,2,4,5
M,17,T,5,1,4,2
M,17,T,5,1,5,5
M,16,T,4,1,1,2
M,16,T,4,2,4,4
F,16,T,4,1,1,3
F,16,T,5,1,1,4
F,16,T,4,1,1,3
M,16,T,3,2,4,2
M,16,T,4,1,1,3
M,17,T,4,1,3,5
F,16,T,4,1,1,3
F,16,T,4,1,1,4
M,17,T,4,4,4,4
F,16,T,3,1,4,5
M,17,T,4,1,4,4
M,16,T,4,3,4,3
M,17,T,5,1,1,2
M,16,T,3,2,3,3
M,16,T,4,1,2,3
F,17,T,5,2,3,5
F,17,T,5,2,3,1
F,16,T,1,1,2,1
M,17,T,4,2,3,4
M,16,T,3,1,2,3
M,16,T,4,1,2,5
F,17,A,3,1,3,3
M,17,T,3,1,5,3
F,16,T,4,1,1,2
F,17,T,5,1,1,3
M,17,T,4,4,5,5
M,16,T,4,3,4,5
M,16,T,5,1,1,3
F,17,T,4,1,1,5
M,17,T,5,1,2,5
M,16,T,3,3,5,3
F,17,T,4,2,3,2
F,16,T,4,1,2,3
F,16,T,4,1,5,2
F,16,T,4,1,3,4
F,17,T,4,1,3,1
F,17,T,5,1,2,3
F,16,T,5,1,1,5
F,17,T,4,3,4,5
F,16,A,2,2,2,4
F,16,T,1,1,1,1
F,16,T,4,1,4,5
F,17,T,4,1,1,4
F,19,T,4,1,2,3
M,17,T,5,4,5,3
F,16,A,3,1,1,4
M,18,T,4,2,4,5
F,17,T,5,1,2,3
F,17,T,4,1,3,1
F,17,T,3,2,4,1
M,18,T,3,2,4,4
F,17,T,3,1,4,3
F,17,T,4,1,1,4
F,17,T,4,1,2,5
F,17,T,4,1,1,5
F,16,T,2,1,1,3
M,18,T,3,5,5,4
F,16,T,5,1,1,5
F,18,T,5,1,1,4
F,17,T,5,1,3,3
M,17,T,5,1,3,3
M,18,T,4,4,5,3
F,17,A,3,1,2,3
F,17,T,3,1,2,3
M,17,T,4,1,1,1
M,17,T,4,1,3,2
M,16,T,4,2,4,1
M,16,T,3,1,1,5
M,16,T,5,1,3,2
M,17,T,4,5,5,4
F,16,T,4,1,1,5
F,17,T,2,1,1,3
M,18,T,5,3,5,2
M,17,T,2,1,4,5
M,17,A,3,2,3,4
M,16,T,5,1,1,3
M,16,T,5,1,2,5
F,18,T,4,1,1,3
M,16,T,4,1,1,4
M,17,T,5,1,1,2
M,22,T,5,5,5,1
M,18,T,4,1,3,5
M,16,T,4,2,4,5
M,18,T,4,2,4,5
M,16,T,5,1,3,2
M,18,T,3,2,5,5
M,16,T,3,1,3,3
M,17,T,4,2,4,5
M,17,T,4,1,2,5
F,17,T,4,1,1,4
M,19,A,4,1,1,1
M,18,T,5,1,2,4
F,17,T,3,1,1,2
F,18,T,3,1,3,2
M,18,T,4,1,1,3
M,18,T,5,1,1,3
F,17,T,3,1,1,4
F,18,T,4,1,1,3
M,18,A,4,3,4,1
M,17,T,5,3,4,5
F,18,T,4,2,2,4
M,18,T,5,1,3,5
F,18,T,4,1,2,3
F,19,T,4,3,3,5
F,18,T,4,1,3,2
F,18,T,4,1,1,3
M,17,T,3,2,2,1
F,17,T,4,1,1,1
F,17,T,4,2,3,5
F,18,A,4,1,1,5
M,18,T,3,1,4,3
F,18,T,2,1,1,4
M,18,T,4,1,2,1
M,17,A,4,2,4,5
M,17,A,4,3,4,3
F,18,T,5,1,1,3
F,18,T,5,1,1,4
F,17,T,5,1,2,5
M,17,T,4,1,2,4
F,18,T,4,1,2,2
F,17,T,4,1,1,3
M,18,T,4,1,3,2
M,18,A,5,1,1,2
M,18,T,4,1,4,5
F,17,T,4,1,2,3
F,18,T,5,1,1,5
F,17,T,3,1,1,3
M,18,T,5,1,1,4
M,17,T,4,1,3,5
F,19,T,2,2,3,2
F,18,T,4,1,2,2
F,18,T,4,1,1,3
M,18,T,1,2,2,1
F,18,A,4,1,1,4
M,17,T,4,2,2,5
F,17,T,4,1,1,3
F,17,T,5,1,2,5
M,19,T,4,1,1,3
F,18,T,4,1,1,3
M,20,A,5,1,1,5
M,19,T,4,1,1,4
M,19,T,4,1,2,5
F,19,T,4,1,3,3
F,19,T,4,2,2,3
F,19,T,3,1,1,2
M,19,T,4,2,2,4
F,19,T,4,1,2,1
F,19,T,4,1,1,3
F,19,T,4,1,1,3
F,18,T,5,1,2,1
F,18,T,4,1,1,5
F,17,T,4,2,5,5
F,18,T,4,3,3,5
F,17,A,5,1,2,5
F,17,T,4,1,1,3
F,17,T,3,2,2,3
F,17,T,3,2,3,5
F,17,T,3,2,3,2
M,18,T,4,2,2,3
M,17,T,4,3,5,5
M,17,T,4,5,5,4
F,17,T,5,1,3,4
F,17,T,4,1,2,4
M,18,T,4,2,4,5
F,17,T,4,1,1,5
F,18,T,5,1,1,4
F,18,T,4,1,1,2
F,18,T,4,1,1,4
F,17,T,4,1,3,5
F,19,A,5,1,2,5
F,17,T,4,2,3,2
F,18,T,5,1,1,1
F,17,A,4,2,3,2
F,19,T,4,1,3,3
M,18,T,4,2,2,2
M,18,T,4,1,3,5
F,17,A,3,1,2,4
F,18,T,4,1,2,3
F,18,T,5,2,3,1
M,18,T,5,1,2,4
M,18,T,5,2,3,5
F,17,T,4,1,3,4
M,18,T,2,5,5,5
M,19,T,5,3,3,2
M,17,T,4,2,3,3
M,18,T,4,2,3,3
M,19,T,4,3,3,5
M,17,T,4,1,3,2
F,18,T,5,1,1,5
F,17,T,4,1,2,5
F,17,A,1,1,2,5
M,18,T,3,1,2,3
F,18,T,5,1,1,4
F,18,A,4,1,4,5
M,18,T,4,2,3,5
F,18,T,4,1,3,3
F,17,T,2,1,1,1
F,17,T,3,1,2,3
M,18,T,3,2,4,3
M,18,T,4,2,2,5
F,17,T,5,1,2,1
F,18,T,5,1,2,4
F,18,T,3,4,2,5
F,19,T,3,1,1,3
M,18,T,4,2,3,3
F,17,T,3,1,1,3
F,17,T,3,1,3,1
F,18,T,5,1,1,1
F,18,T,4,1,2,4
F,20,T,5,1,1,3
F,18,T,5,3,4,2
F,18,T,4,1,2,1
F,17,T,4,2,3,1
M,18,T,3,1,4,2
M,18,T,4,1,3,5
M,17,T,4,1,1,3
M,19,T,4,1,3,5
M,18,T,5,4,3,3
F,18,T,5,1,3,4
F,18,T,4,2,2,5
F,19,T,5,1,2,5
F,18,T,4,1,1,1
F,18,T,1,1,1,5
M,20,A,5,4,5,4
M,17,T,2,3,4,2
M,21,T,5,3,3,3
M,18,T,4,3,4,5
M,19,T,3,3,3,5
